<svg id="Simple_Divider" data-name="Simple Divider" xmlns="http://www.w3.org/2000/svg" viewBox="0 0 300 7.3">
	<defs>
		<style>
		.cls-1 {
			fill: #f0e99a;
		}
		</style>
	</defs>
	<title>strangespires-divider</title>
	<polygon class="cls-1" points="282.3 1 270 1.1 255 0 240 0.2 225 1.6 210.1 1.8 196.5 3.3 181.1 2.1 166.2 2 148.4 1.6 135 0.5 120.2 1 103.4 3 90 2.7 75 0.9 60 0.5 45 0.3 30 1.4 15 1 0 4.6 15 3 30 3.7 45 4 60 3.6 75 5.6 90 5.8 106.8 6.3 120 5.3 135 6.3 152.3 6 166.5 7.3 180.8 7 194.8 6.7 210.2 5.1 225 5.3 240 3.3 255 3.7 270 3.4 285 2.7 300 4.3 282.3 1"/>
</svg>
